…
You can instead return a dataframe which has every building in the rows, and the nearest crime to the building. This is achieved by setting the "nearest" option to be "nearest = user", instead of the default "nearest = facility".

``` r

facility_user_dist(facility = york_selected, 
                   user = york_crime, 
                   nearest = "user")
#> # A tibble: 71 × 23
#>                 category
#>                    <chr>
#> 1  anti-social-behaviour
#> 2  anti-social-behaviour
#> 3  anti-social-behaviour
#> 4  anti-social-behaviour
#> 5  anti-social-behaviour
#> 6  anti-social-behaviour
#> 7          bicycle-theft
#> 8  anti-social-behaviour
#> 9  anti-social-behaviour
#> 10 anti-social-behaviour
#> # ... with 61 more rows, and 22 more variables: persistent_id <chr>,
#> #   date <chr>, lat_user <dbl>, long_user <dbl>, street_id <chr>,
#> #   street_name <chr>, context <chr>, id <chr>, location_type <chr>,
#> #   location_subtype <chr>, outcome_status <chr>, user_id <int>,
#> #   long_facility <dbl>, lat_facility <dbl>, object_id <int>,
#> #   desig_id <chr>, pref_ref <int>, name <chr>, grade <chr>,
#> #   facility_id <int>, distance <dbl>, is_covered <lgl>
```

The distances between all buildings and crimes can be returned using "nearest = both".

``` r

facility_user_dist(facility = york_selected,
                   user = york_crime,
                   nearest = "both")
#> # A tibble: 128,794 × 23
#>                 category
#>                    <chr>
#> 1  anti-social-behaviour
#> 2  anti-social-behaviour
#> 3  anti-social-behaviour
#> 4  anti-social-behaviour
#> 5  anti-social-behaviour
#> 6  anti-social-behaviour
#> 7  anti-social-behaviour
#> 8  anti-social-behaviour
#> 9  anti-social-behaviour
#> 10 anti-social-behaviour
#> # ... with 128,784 more rows, and 22 more variables: persistent_id <chr>,
#> #   date <chr>, lat_user <dbl>, long_user <dbl>, street_id <chr>,
#> #   street_name <chr>, context <chr>, id <chr>, location_type <chr>,
#> #   location_subtype <chr>, outcome_status <chr>, user_id <int>,
#> #   long_facility <dbl>, lat_facility <dbl>, object_id <int>,
#> #   desig_id <chr>, pref_ref <int>, name <chr>, grade <chr>,
#> #   facility_id <int>, distance <dbl>, is_covered <lgl>
```
…
