Solve the Maximal Covering Location Problem — max_coverage • maxcovr
…
# get the users affected
mc_result$user_affected
#> [[1]]
#> # A tibble: 201 × 16
#>    user_id user_chosen facility_id distance category   persistent_id date    lat
#>      <dbl>       <int>       <dbl>    <dbl> <chr>      <chr>         <chr> <dbl>
#>  1       1           1          66     166. anti-soci… 62299914865f… 2016…  54.0
#>  2       5           1          25     536. anti-soci… 6139f131b724… 2016…  54.0
#>  3      13           1           6    2334. anti-soci… c2aac5cdf98e… 2016…  54.0
#>  4      14           1           2   12687. anti-soci… c0908b075c68… 2016…  54.1
#>  5      15           1          24     620. anti-soci… 40c8c061c48b… 2016…  54.0
#>  6      21           1          60    1286. anti-soci… 45ce21c8785e… 2016…  53.9
#>  7      23           1          NA      NA  NA         NA            NA     NA  
#>  8      24           1          NA      NA  NA         NA            NA     NA  
#>  9      27           1          NA      NA  NA         NA            NA     NA  
#> 10      29           1           2     375. anti-soci… db6cacd76d97… 2016…  54.0
#> # ℹ 191 more rows
#> # ℹ 8 more variables: long <dbl>, street_id <chr>, street_name <chr>,
#> #   context <chr>, id <chr>, location_type <chr>, location_subtype <chr>,
#> #   outcome_status <chr>
…
