Using maxcovr • maxcovr
…
We can then get information about the users with augmented_users

mc_20$augmented_users[[1]]

## # A tibble: 1,814 x 19
##    to_id nearest_id distance user_id category persistent_id date  lat_to
##    <dbl>      <dbl>    <dbl>   <int> <chr>    <chr>         <chr>  <dbl>
##  1     1          3     84.3       1 anti-so… 62299914865f… 2016…   54.0
##  2     2         16    512.        2 anti-so… 4e34f53d247f… 2016…   54.0
##  3     3          3     65.2       3 anti-so… 2a0062f3dfac… 2016…   54.0
##  4     4         31    286.        4 anti-so… eb53e09ae46a… 2016…   54.0
##  5     5         20    231.        5 anti-so… 6139f131b724… 2016…   54.0
##  6     6          8     22.8       6 anti-so… d8de26d5af47… 2016…   54.0
##  7     7         22   2136.        7 anti-so… 5b742b1cb918… 2016…   54.0
##  8     8         26   2329.        8 anti-so… d2112b4fd0a0… 2016…   54.0
##  9     9         49     37.4       9 anti-so… 30bf5bfa97c5… 2016…   54.0
## 10    10          5   3150.       10 anti-so… d75bbe6c18bf… 2016…   54.0
## # … with 1,804 more rows, and 11 more variables: long_to <dbl>,
## #   street_id <chr>, street_name <chr>, context <chr>, id <chr>,
## #   location_type <chr>, location_subtype <chr>, outcome_status <chr>,
## #   lat_nearest <dbl>, long_nearest <dbl>, type <chr>
…
