Using max_coverage_relocation • maxcovr
…
york_best <- 
 york_crime %>%
    nearest(york_not_selected_worst) %>%
    arrange(distance) %>%
    slice(1:100) %>%
    select(desig_id) %>%
    distinct(desig_id) %>%
    left_join(york,
              by = "desig_id")

york_best

## # A tibble: 101 × 7
##    desig_id      long      lat object_id pref_ref
##       <chr>     <dbl>    <dbl>     <int>    <int>
## 1    DYO788 -1.087865 53.95718      3362   463995
## 2    DYO857 -1.079543 53.96484      5549   463864
## 3    DYO857 -1.079543 53.96484      4212   463864
## 4   DYO1212 -1.084407 53.95989      5843   463237
## 5   DYO1212 -1.084407 53.95989      4506   463237
## 6    DYO862 -1.082647 53.95747      5554   463874
## 7    DYO862 -1.082647 53.95747      4217   463874
## 8   DYO1146 -1.078714 53.95886      5793   463399
## 9   DYO1146 -1.078714 53.95886      4456   463399
## 10  DYO1078 -1.086914 53.95748      5730   463443
## # ... with 91 more rows, and 2 more variables: name <chr>, grade <chr>

york_worst

## # A tibble: 21 × 7
##    desig_id       long      lat object_id pref_ref
##       <chr>      <dbl>    <dbl>     <int>    <int>
## 1     DYO91 -0.9795694 54.01890      3545   328688
## 2     DYO91 -0.9795694 54.01890      4882   328688
## 3    DYO222 -1.2028583 53.97360      3720   331644
## 4    DYO222 -1.2028583 53.97360      5057   331644
## 5   DYO1477 -0.9832742 54.01594      6043   328687
## 6   DYO1477 -0.9832742 54.01594      4707   328687
## 7    DYO138 -1.2051517 53.97325      3591   331645
## 8    DYO138 -1.2051517 53.97325      4928   331645
## 9    DYO137 -1.1930094 53.97360      3590   331701
## 10   DYO137 -1.1930094 53.97360      4927   331701
## # ... with 11 more rows, and 2 more variables: name <chr>, grade <chr>
…
