Solve the Maximal Covering Location Problem — max_coverage • maxcovr
…
 # get the users affected
 mc_result$user_affected
#> [[1]]
#> # A tibble: 201 × 16
#>    user_id user_chosen facility_id   distance              category
#>      <dbl>       <dbl>       <dbl>      <dbl>                 <chr>
#> 1        1           1          66   165.8575 anti-social-behaviour
#> 2        5           1          25   535.7871 anti-social-behaviour
#> 3       13           1           6  2334.3248 anti-social-behaviour
#> 4       14           1           2 12686.9300 anti-social-behaviour
#> 5       15           1          24   620.2091 anti-social-behaviour
#> 6       23           1          NA         NA                  <NA>
#> 7       27           1          NA         NA                  <NA>
#> 8       29           1           2   374.9738 anti-social-behaviour
#> 9       33           1          NA         NA                  <NA>
#> 10      48           1           6  7274.0229 anti-social-behaviour
#> # ... with 191 more rows, and 11 more variables: persistent_id <chr>,
#> #   date <chr>, lat <dbl>, long <dbl>, street_id <chr>, street_name <chr>,
#> #   context <chr>, id <chr>, location_type <chr>, location_subtype <chr>,
#> #   outcome_status <chr>
…
