Using max_coverage_relocation • maxcovr
…
york_proposed_best <- 
 york_crime %>%
    nearest(york_not_selected_worst) %>%
    arrange(distance) %>%
    slice(1:100) %>%
    select(desig_id) %>%
    distinct(desig_id) %>%
    left_join(york,
              by = "desig_id")

york_proposed_best

## # A tibble: 101 × 7
##    desig_id  long   lat object_id pref_ref name                            grade
##    <chr>    <dbl> <dbl>     <int>    <int> <chr>                           <chr>
##  1 DYO788   -1.09  54.0      3362   463995 NA                              II*  
##  2 DYO857   -1.08  54.0      5549   463864 UNIVERSITY COLLEGE OF RIPON AN… II   
##  3 DYO857   -1.08  54.0      4212   463864 UNIVERSITY COLLEGE OF RIPON AN… II   
##  4 DYO1212  -1.08  54.0      5843   463237 NA                              II   
##  5 DYO1212  -1.08  54.0      4506   463237 NA                              II   
##  6 DYO862   -1.08  54.0      5554   463874 NA                              II   
##  7 DYO862   -1.08  54.0      4217   463874 NA                              II   
##  8 DYO1146  -1.08  54.0      5793   463399 NA                              II   
##  9 DYO1146  -1.08  54.0      4456   463399 NA                              II   
## 10 DYO1078  -1.09  54.0      5730   463443 THE ADELPHI HOTEL AND THE RAIL… II   
## # ℹ 91 more rows

york_existing_worst

## # A tibble: 21 × 7
##    desig_id   long   lat object_id pref_ref name                           grade
##    <chr>     <dbl> <dbl>     <int>    <int> <chr>                          <chr>
##  1 DYO91    -0.980  54.0      3545   328688 SANDBURN CROSS IN GROUNDS OF … II   
##  2 DYO91    -0.980  54.0      4882   328688 SANDBURN CROSS IN GROUNDS OF … II   
##  3 DYO222   -1.20   54.0      3720   331644 PEAR TREE FARMHOUSE            II   
##  4 DYO222   -1.20   54.0      5057   331644 PEAR TREE FARMHOUSE            II   
##  5 DYO1477  -0.983  54.0      6043   328687 MILEPOST APPROXIMATELY 75 MET… II   
##  6 DYO1477  -0.983  54.0      4707   328687 MILEPOST APPROXIMATELY 75 MET… II   
##  7 DYO138   -1.21   54.0      3591   331645 CROFT FARMHOUSE                II   
##  8 DYO138   -1.21   54.0      4928   331645 CROFT FARMHOUSE                II   
##  9 DYO137   -1.19   54.0      3590   331701 BOUNDARY POST AT SE 5303 5336  II   
## 10 DYO137   -1.19   54.0      4927   331701 BOUNDARY POST AT SE 5303 5336  II   
## # ℹ 11 more rows
…
dim(york_existing_worst)

## [1] 21  7

dim(york_proposed_best)

## [1] 101   7

mc_relocate_worst$existing_facility[[1]]

## # A tibble: 21 × 8
##    desig_id   long   lat object_id pref_ref name              grade is_relocated
##    <chr>     <dbl> <dbl>     <int>    <int> <chr>             <chr> <lgl>       
##  1 DYO91    -0.980  54.0      3545   328688 SANDBURN CROSS I… II    FALSE       
##  2 DYO91    -0.980  54.0      4882   328688 SANDBURN CROSS I… II    FALSE       
##  3 DYO222   -1.20   54.0      3720   331644 PEAR TREE FARMHO… II    FALSE       
##  4 DYO222   -1.20   54.0      5057   331644 PEAR TREE FARMHO… II    FALSE       
##  5 DYO1477  -0.983  54.0      6043   328687 MILEPOST APPROXI… II    FALSE       
##  6 DYO1477  -0.983  54.0      4707   328687 MILEPOST APPROXI… II    FALSE       
##  7 DYO138   -1.21   54.0      3591   331645 CROFT FARMHOUSE   II    FALSE       
##  8 DYO138   -1.21   54.0      4928   331645 CROFT FARMHOUSE   II    FALSE       
##  9 DYO137   -1.19   54.0      3590   331701 BOUNDARY POST AT… II    FALSE       
## 10 DYO137   -1.19   54.0      4927   331701 BOUNDARY POST AT… II    FALSE       
## # ℹ 11 more rows

mc_relocate_worst$proposed_facility[[1]]

## # A tibble: 101 × 8
##    desig_id  long   lat object_id pref_ref name               grade is_installed
##    <chr>    <dbl> <dbl>     <int>    <int> <chr>              <chr>        <dbl>
##  1 DYO788   -1.09  54.0      3362   463995 NA                 II*              0
##  2 DYO857   -1.08  54.0      5549   463864 UNIVERSITY COLLEG… II               0
##  3 DYO857   -1.08  54.0      4212   463864 UNIVERSITY COLLEG… II               0
##  4 DYO1212  -1.08  54.0      5843   463237 NA                 II               1
##  5 DYO1212  -1.08  54.0      4506   463237 NA                 II               0
##  6 DYO862   -1.08  54.0      5554   463874 NA                 II               0
##  7 DYO862   -1.08  54.0      4217   463874 NA                 II               0
##  8 DYO1146  -1.08  54.0      5793   463399 NA                 II               1
##  9 DYO1146  -1.08  54.0      4456   463399 NA                 II               0
## 10 DYO1078  -1.09  54.0      5730   463443 THE ADELPHI HOTEL… II               0
## # ℹ 91 more rows

mc_relocate_worst$facilities_selected[[1]]

## # A tibble: 21 × 7
##    desig_id   long   lat object_id pref_ref name                           grade
##    <chr>     <dbl> <dbl>     <int>    <int> <chr>                          <chr>
##  1 DYO91    -0.980  54.0      3545   328688 SANDBURN CROSS IN GROUNDS OF … II   
##  2 DYO91    -0.980  54.0      4882   328688 SANDBURN CROSS IN GROUNDS OF … II   
##  3 DYO222   -1.20   54.0      3720   331644 PEAR TREE FARMHOUSE            II   
##  4 DYO222   -1.20   54.0      5057   331644 PEAR TREE FARMHOUSE            II   
##  5 DYO1477  -0.983  54.0      6043   328687 MILEPOST APPROXIMATELY 75 MET… II   
##  6 DYO1477  -0.983  54.0      4707   328687 MILEPOST APPROXIMATELY 75 MET… II   
##  7 DYO138   -1.21   54.0      3591   331645 CROFT FARMHOUSE                II   
##  8 DYO138   -1.21   54.0      4928   331645 CROFT FARMHOUSE                II   
##  9 DYO137   -1.19   54.0      3590   331701 BOUNDARY POST AT SE 5303 5336  II   
## 10 DYO137   -1.19   54.0      4927   331701 BOUNDARY POST AT SE 5303 5336  II   
## # ℹ 11 more rows
…
